Medienbasierte Wissenskonstruktion mit R - Hausaufgabe 6
…
Welche Airline hat nun nicht im Mittel die meiste, sondern die häufigsten (und wenigsten) Verspätungen über 30 Minuten? Berechnet das.

dataset %>% 
  group_by(delayed, carrier) %>% 
  filter(!is.na(delayed)) %>% 
  summarise(sum = n()) %>% 
  arrange(desc(sum))

`summarise()` has grouped output by 'delayed'. You can override using the
`.groups` argument.

# A tibble: 30 × 3
# Groups:   delayed [2]
   delayed carrier   sum
   <lgl>   <chr>   <int>
 1 FALSE   UA       1529
 2 FALSE   B6       1291
 3 FALSE   DL       1242
 4 FALSE   EV       1202
 5 FALSE   AA        856
 6 FALSE   MQ        616
 7 FALSE   US        502
 8 FALSE   9E        405
 9 FALSE   WN        308
10 TRUE    EV        289
# ℹ 20 more rows
…
