Medienbasierte Wissenskonstruktion mit R - Analysebeispiel - Virtual Learning Environment Data
…
Notendurchschnitt der Zwischenprüfungen 2 (nur für ein Modul)

Um uns die Analyse etwas einfacher zu gestalten, schauen wir uns nur die Ergebnisse von einem Modul aus einem Semester an. So müssen wir nicht berücksichtigen, ob Studierenden mehrfach in den Daten auftauchen durch mehrfache Belegung uvm.

# Welcher Kurs hat am meisten Anmeldungen (-> höheres n)?
student.regi %>% 
  filter(!is.na(date_registration)) %>% 
  group_by(code_module, code_presentation) %>% 
  summarize(n = n()) %>% 
  arrange(desc(n))

`summarise()` has grouped output by 'code_module'. You can override using the
`.groups` argument.

# A tibble: 22 × 3
# Groups:   code_module [7]
   code_module code_presentation     n
   <chr>       <chr>             <int>
 1 CCC         2014J              2495
 2 FFF         2014J              2363
 3 BBB         2014J              2291
 4 FFF         2013J              2282
 5 BBB         2013J              2235
 6 DDD         2013J              1933
 7 CCC         2014B              1931
 8 DDD         2014J              1800
 9 BBB         2013B              1766
10 FFF         2013B              1611
# ℹ 12 more rows
…
