Medienbasierte Wissenskonstruktion mit R (SS24) - Übungsblatt 4: Transform mit dplyr
…
Es fällt auf, dass der Datentyp der Age Variable double ist, bzw. Kommazahlen enthält. Woran könnte das liegen?

Antwort hier

Aufgabe 2 [1 Punkt]

Beim letzten Mal habt ihr mit filter(x) Zeilen herausgefiltert, die bei Age den Wert NA hatten. Allerdings scheint es noch in anderen Spalten NA Werte zu geben. Diese alle einzeln mit filter(x) herauszufiltern, ist euch zu aufwendig.

Glücklicherweise gibt es in tidyr eine Funktion, mit der ihr genau dies tun könnt: Alle Spalten mit NAs herausfiltern. Findet heraus, welche Funktion das ist und wendet sie an.

# Lösung hier
titanic %>% 
  drop_na()

# A tibble: 183 × 12
   PassengerId Survived Pclass Name   Sex     Age SibSp Parch Ticket  Fare Cabin
         <dbl>    <dbl>  <dbl> <chr>  <chr> <dbl> <dbl> <dbl> <chr>  <dbl> <chr>
 1           2        1      1 Cumin… fema…    38     1     0 PC 17…  71.3 C85  
 2           4        1      1 Futre… fema…    35     1     0 113803  53.1 C123 
 3           7        0      1 McCar… male     54     0     0 17463   51.9 E46  
 4          11        1      3 Sands… fema…     4     1     1 PP 95…  16.7 G6   
 5          12        1      1 Bonne… fema…    58     0     0 113783  26.6 C103 
 6          22        1      2 Beesl… male     34     0     0 248698  13   D56  
 7          24        1      1 Slope… male     28     0     0 113788  35.5 A6   
 8          28        0      1 Fortu… male     19     3     2 19950  263   C23 …
 9          53        1      1 Harpe… fema…    49     1     0 PC 17…  76.7 D33  
10          55        0      1 Ostby… male     65     0     1 113509  62.0 B30  
# ℹ 173 more rows
# ℹ 1 more variable: Embarked <chr>

Wieviele Zeilen bleiben über und wie praktikabel schätzt ihr diesen Ansatz ein?

Antwort hier

Aufgabe 3 [1 Punkt]

Ihr entscheidet euch, erstmal keine NAs aus dem Datensatz zu entfernen. Euch fällt aber auch auf, dass die Variable Name nur schwer zu gebrauchen ist, und eine einzelne Spalte für den Vor- bzw. Nachnamen praktischer wäre. Dazu habt ihr im Seminar bereits eine tidyr Funktion kennengelernt. Benutzt diese, um die beiden Spalten Name (Vorname) und Surname (Nachname) zu erstellen und speichert den Datensatz.

titanic %>% 
  separate_wider_delim(.,cols=Name,delim=",",names=c("Surname","Name"))

# A tibble: 891 × 13
   PassengerId Survived Pclass Surname   Name     Sex     Age SibSp Parch Ticket
         <dbl>    <dbl>  <dbl> <chr>     <chr>    <chr> <dbl> <dbl> <dbl> <chr> 
 1           1        0      3 Braund    " Mr. O… male     22     1     0 A/5 2…
 2           2        1      1 Cumings   " Mrs. … fema…    38     1     0 PC 17…
 3           3        1      3 Heikkinen " Miss.… fema…    26     0     0 STON/…
 4           4        1      1 Futrelle  " Mrs. … fema…    35     1     0 113803
 5           5        0      3 Allen     " Mr. W… male     35     0     0 373450
 6           6        0      3 Moran     " Mr. J… male     NA     0     0 330877
 7           7        0      1 McCarthy  " Mr. T… male     54     0     0 17463 
 8           8        0      3 Palsson   " Maste… male      2     3     1 349909
 9           9        1      3 Johnson   " Mrs. … fema…    27     0     2 347742
10          10        1      2 Nasser    " Mrs. … fema…    14     1     0 237736
# ℹ 881 more rows
# ℹ 3 more variables: Fare <dbl>, Cabin <chr>, Embarked <chr>

Aufgabe 4 [1 Punkt]

Ein genauerer Blick auf die Fare Variable zeigt überraschend geringe Werte - diese entsprechen offensichtlich den Preisen in Dollar aus 1912. Da ihr wissen wollt, wie hoch die Preise heute wären, müsst ihr diese an die Inflation anpassen.

Eine kurze Recherche zeigt, dass 1$ in 1912 heutzutage 31.80$ wert ist. Das können wir nutzen, um die Preise an die Inflation anzupassen. Nutzt mutate(x), um die Variable Fare_adj zu erstellen, welche den heutigen Ticketpreis wiedergibt:

titanic %>% 
  mutate(Fare_adj = Fare*31.8)

# A tibble: 891 × 13
   PassengerId Survived Pclass Name   Sex     Age SibSp Parch Ticket  Fare Cabin
         <dbl>    <dbl>  <dbl> <chr>  <chr> <dbl> <dbl> <dbl> <chr>  <dbl> <chr>
 1           1        0      3 Braun… male     22     1     0 A/5 2…  7.25 <NA> 
 2           2        1      1 Cumin… fema…    38     1     0 PC 17… 71.3  C85  
 3           3        1      3 Heikk… fema…    26     0     0 STON/…  7.92 <NA> 
 4           4        1      1 Futre… fema…    35     1     0 113803 53.1  C123 
 5           5        0      3 Allen… male     35     0     0 373450  8.05 <NA> 
 6           6        0      3 Moran… male     NA     0     0 330877  8.46 <NA> 
 7           7        0      1 McCar… male     54     0     0 17463  51.9  E46  
 8           8        0      3 Palss… male      2     3     1 349909 21.1  <NA> 
 9           9        1      3 Johns… fema…    27     0     2 347742 11.1  <NA> 
10          10        1      2 Nasse… fema…    14     1     0 237736 30.1  <NA> 
# ℹ 881 more rows
# ℹ 2 more variables: Embarked <chr>, Fare_adj <dbl>

Aufgabe 5 [1 Punkt]

Die Ticketpreise wirken jedoch immer noch recht “preiswert”. Ihr bemerkt, dass sich die Fare Variable auf Preise in GBP (Pfund, £) bezieht und 1912 ein Pfund fünf Dollar entsprach. Passt eure Berechnung entsprechend an:

titanic %>% 
  mutate(Fare_adj = Fare*5*31.8)

# A tibble: 891 × 13
   PassengerId Survived Pclass Name   Sex     Age SibSp Parch Ticket  Fare Cabin
         <dbl>    <dbl>  <dbl> <chr>  <chr> <dbl> <dbl> <dbl> <chr>  <dbl> <chr>
 1           1        0      3 Braun… male     22     1     0 A/5 2…  7.25 <NA> 
 2           2        1      1 Cumin… fema…    38     1     0 PC 17… 71.3  C85  
 3           3        1      3 Heikk… fema…    26     0     0 STON/…  7.92 <NA> 
 4           4        1      1 Futre… fema…    35     1     0 113803 53.1  C123 
 5           5        0      3 Allen… male     35     0     0 373450  8.05 <NA> 
 6           6        0      3 Moran… male     NA     0     0 330877  8.46 <NA> 
 7           7        0      1 McCar… male     54     0     0 17463  51.9  E46  
 8           8        0      3 Palss… male      2     3     1 349909 21.1  <NA> 
 9           9        1      3 Johns… fema…    27     0     2 347742 11.1  <NA> 
10          10        1      2 Nasse… fema…    14     1     0 237736 30.1  <NA> 
# ℹ 881 more rows
# ℹ 2 more variables: Embarked <chr>, Fare_adj <dbl>
…
